{
  "paths" : {
      "data"    : "D:/Projects/CAVA/data",
      "scratch" : "D:/Projects/CAVA/Scratch",
      "results" : "D:/Projects/CAVA/results",
      "figures" : "D:/Projects/CAVA/results/figures"
  }
}
